%YAML 1.1
%TAG !u! tag:unity3d.com,2011:
--- !u!114 &11400000
MonoBehaviour:
  m_ObjectHideFlags: 0
  m_CorrespondingSourceObject: {fileID: 0}
  m_PrefabInstance: {fileID: 0}
  m_PrefabAsset: {fileID: 0}
  m_GameObject: {fileID: 0}
  m_Enabled: 1
  m_EditorHideFlags: 0
  m_Script: {fileID: 11500000, guid: d91c9713f6964fe47be092f038dce345, type: 3}
  m_Name: Susto
  m_EditorClassIdentifier: 
  Clips:
  - {fileID: 8300000, guid: 6561c7fefd6a7fb4795fa867c71ebc4f, type: 3}
  - {fileID: 8300000, guid: 84733c2c91a8d854199262e888b9942e, type: 3}
