%YAML 1.1
%TAG !u! tag:unity3d.com,2011:
--- !u!136 &1419703298851182566
CapsuleCollider:
  m_ObjectHideFlags: 0
  m_CorrespondingSourceObject: {fileID: 0}
  m_PrefabInstance: {fileID: 0}
  m_PrefabAsset: {fileID: 0}
  m_GameObject: {fileID: 7848756055488519933}
  m_Material: {fileID: 0}
  m_IsTrigger: 0
  m_Enabled: 1
  m_Radius: 0.38133937
  m_Height: 3.7835994
  m_Direction: 1
  m_Center: {x: -0.035736203, y: 1.6440127, z: 0}
--- !u!1001 &6930208448296248236
PrefabInstance:
  m_ObjectHideFlags: 0
  serializedVersion: 2
  m_Modification:
    m_TransformParent: {fileID: 0}
    m_Modifications:
    - target: {fileID: -8679921383154817045, guid: b31b23b864dc66248b9bd387213519ce, type: 3}
      propertyPath: m_RootOrder
      value: 0
      objectReference: {fileID: 0}
    - target: {fileID: -8679921383154817045, guid: b31b23b864dc66248b9bd387213519ce, type: 3}
      propertyPath: m_LocalPosition.x
      value: 0
      objectReference: {fileID: 0}
    - target: {fileID: -8679921383154817045, guid: b31b23b864dc66248b9bd387213519ce, type: 3}
      propertyPath: m_LocalPosition.y
      value: 0
      objectReference: {fileID: 0}
    - target: {fileID: -8679921383154817045, guid: b31b23b864dc66248b9bd387213519ce, type: 3}
      propertyPath: m_LocalPosition.z
      value: 0
      objectReference: {fileID: 0}
    - target: {fileID: -8679921383154817045, guid: b31b23b864dc66248b9bd387213519ce, type: 3}
      propertyPath: m_LocalRotation.w
      value: 1
      objectReference: {fileID: 0}
    - target: {fileID: -8679921383154817045, guid: b31b23b864dc66248b9bd387213519ce, type: 3}
      propertyPath: m_LocalRotation.x
      value: 0
      objectReference: {fileID: 0}
    - target: {fileID: -8679921383154817045, guid: b31b23b864dc66248b9bd387213519ce, type: 3}
      propertyPath: m_LocalRotation.y
      value: 0
      objectReference: {fileID: 0}
    - target: {fileID: -8679921383154817045, guid: b31b23b864dc66248b9bd387213519ce, type: 3}
      propertyPath: m_LocalRotation.z
      value: 0
      objectReference: {fileID: 0}
    - target: {fileID: -8679921383154817045, guid: b31b23b864dc66248b9bd387213519ce, type: 3}
      propertyPath: m_LocalEulerAnglesHint.x
      value: 0
      objectReference: {fileID: 0}
    - target: {fileID: -8679921383154817045, guid: b31b23b864dc66248b9bd387213519ce, type: 3}
      propertyPath: m_LocalEulerAnglesHint.y
      value: 0
      objectReference: {fileID: 0}
    - target: {fileID: -8679921383154817045, guid: b31b23b864dc66248b9bd387213519ce, type: 3}
      propertyPath: m_LocalEulerAnglesHint.z
      value: 0
      objectReference: {fileID: 0}
    - target: {fileID: 919132149155446097, guid: b31b23b864dc66248b9bd387213519ce, type: 3}
      propertyPath: m_Name
      value: Spruce_Collider
      objectReference: {fileID: 0}
    - target: {fileID: 8729254957001842135, guid: b31b23b864dc66248b9bd387213519ce, type: 3}
      propertyPath: m_Materials.Array.data[1]
      value: 
      objectReference: {fileID: 2100000, guid: 7d39b8f828cf4344bbb8994632f71e9c, type: 2}
    m_RemovedComponents: []
  m_SourcePrefab: {fileID: 100100000, guid: b31b23b864dc66248b9bd387213519ce, type: 3}
--- !u!1 &7848756055488519933 stripped
GameObject:
  m_CorrespondingSourceObject: {fileID: 919132149155446097, guid: b31b23b864dc66248b9bd387213519ce, type: 3}
  m_PrefabInstance: {fileID: 6930208448296248236}
  m_PrefabAsset: {fileID: 0}
