%YAML 1.1
%TAG !u! tag:unity3d.com,2011:
--- !u!221 &22100000
AnimatorOverrideController:
  m_ObjectHideFlags: 0
  m_CorrespondingSourceObject: {fileID: 0}
  m_PrefabInstance: {fileID: 0}
  m_PrefabAsset: {fileID: 0}
  m_Name: MainCharacterOverride
  m_Controller: {fileID: 9100000, guid: 5b813f9fe9c7e1644bdecb3f878c49d9, type: 2}
  m_Clips:
  - m_OriginalClip: {fileID: 7400000, guid: 11cb42b2113601a4996c3a3dd392e2d3, type: 2}
    m_OverrideClip: {fileID: 7400000, guid: 11cb42b2113601a4996c3a3dd392e2d3, type: 2}
  - m_OriginalClip: {fileID: 7610775706723202168, guid: 314be7b5d6feebf4cbcf21d09f87708f, type: 3}
    m_OverrideClip: {fileID: 7400000, guid: d6ffcc0a771ae974bbbe70cd63afbebd, type: 2}
  - m_OriginalClip: {fileID: -5492111839248352379, guid: 314be7b5d6feebf4cbcf21d09f87708f, type: 3}
    m_OverrideClip: {fileID: -5492111839248352379, guid: 314be7b5d6feebf4cbcf21d09f87708f, type: 3}
