%YAML 1.1
%TAG !u! tag:unity3d.com,2011:
--- !u!21 &2100000
Material:
  serializedVersion: 6
  m_ObjectHideFlags: 0
  m_CorrespondingSourceObject: {fileID: 0}
  m_PrefabInstance: {fileID: 0}
  m_PrefabAsset: {fileID: 0}
  m_Name: windLeavesMaterial
  m_Shader: {fileID: -6465566751694194690, guid: 4782707d45d289849b6150a78fb9a3c0, type: 3}
  m_ShaderKeywords: 
  m_LightmapFlags: 4
  m_EnableInstancingVariants: 0
  m_DoubleSidedGI: 0
  m_CustomRenderQueue: -1
  stringTagMap: {}
  disabledShaderPasses: []
  m_SavedProperties:
    serializedVersion: 3
    m_TexEnvs:
    - Texture2D_4D5469FA:
        m_Texture: {fileID: 2800000, guid: a61a8439071060445a42a7313f954d7c, type: 3}
        m_Scale: {x: 1, y: 1}
        m_Offset: {x: 0, y: 0}
    - Texture2D_6FA4F8F6:
        m_Texture: {fileID: 2800000, guid: 468f2753d3fb29847aefd8bde528471d, type: 3}
        m_Scale: {x: 1, y: 1}
        m_Offset: {x: 0, y: 0}
    - Texture2D_E83CF7C0:
        m_Texture: {fileID: 0}
        m_Scale: {x: 1, y: 1}
        m_Offset: {x: 0, y: 0}
    m_Floats:
    - Vector1_40D9AC0C: 0.28
    - Vector1_6B352F7D: 0
    - Vector1_94F7FD77: 0.05
    - Vector1_C1F65B2F: 10
    m_Colors: []
  m_BuildTextureStacks: []
